{
  "maxSalary": 6000,
  "totalSalaries": 6000,
  "employeesCount": 1,
  "minSalary": 6000,
  "items": [{
    "firstName": "Zain",
    "lastName": "Haj Hamad",
    "id": "438768422148",
    "salary": 6000
  }]
}